Lecture 8: Factors, Dates and Times
…
Retrieve the set of valid levels directly:

levels(y1)

##  [1] "Jan" "Feb" "Mar" "Apr" "May" "Jun" "Jul" "Aug" "Sep" "Oct" "Nov"
## [12] "Dec"

General Social Survey

Long-running US survey conducted by the independent research organization NORC at the University of Chicago.

forcats::gss_cat

## # A tibble: 21,483 x 9
##     year marital     age race  rincome   partyid   relig   denom   tvhours
##    <int> <fct>     <int> <fct> <fct>     <fct>     <fct>   <fct>     <int>
##  1  2000 Never ma    26 White $8000 to Ind,near Protes Southe      12
##  2  2000 Divorced     48 White $8000 to Not str  Protes Baptis      NA
##  3  2000 Widowed      67 White Not appl Independ Protes No den       2
##  4  2000 Never ma    39 White Not appl Ind,near Orthod Not ap       4
##  5  2000 Divorced     25 White Not appl Not str  None    Not ap       1
##  6  2000 Married      25 White $20000 - Strong d Protes Southe      NA
##  7  2000 Never ma    36 White $25000 o Not str  Christ Not ap       3
##  8  2000 Divorced     44 White $7000 to Ind,near Protes Luther      NA
##  9  2000 Married      44 White $25000 o Not str  Protes Other         0
## 10  2000 Married      47 White $25000 o Strong r Protes Southe       3
## # ... with 21,473 more rows
…
mdy_hm("01/31/2017 08:01")

## [1] "2017-01-31 08:01:00 UTC"

From individual components

Instead of a single string, sometimes youll have the individual components of the date-time spread across multiple columns. This is what we have in the flights data:

library(nycflights13)
flights %>% 
  select(year, month, day, hour, minute) %>% 
  mutate(departure = make_datetime(year, month, day, hour, minute))

## # A tibble: 336,776 x 6
##     year month   day  hour minute departure          
##    <int> <int> <int> <dbl>  <dbl> <dttm>             
##  1  2013     1     1     5     15 2013-01-01 05:15:00
##  2  2013     1     1     5     29 2013-01-01 05:29:00
##  3  2013     1     1     5     40 2013-01-01 05:40:00
##  4  2013     1     1     5     45 2013-01-01 05:45:00
##  5  2013     1     1     6      0 2013-01-01 06:00:00
##  6  2013     1     1     5     58 2013-01-01 05:58:00
##  7  2013     1     1     6      0 2013-01-01 06:00:00
##  8  2013     1     1     6      0 2013-01-01 06:00:00
##  9  2013     1     1     6      0 2013-01-01 06:00:00
## 10  2013     1     1     6      0 2013-01-01 06:00:00
## # ... with 336,766 more rows
…
flights_dt <- flights %>% 
  filter(!is.na(dep_time), !is.na(arr_time)) %>% 
  mutate(
    dep_time = make_datetime_100(year, month, day, dep_time),
    arr_time = make_datetime_100(year, month, day, arr_time),
    sched_dep_time = make_datetime_100(year, month, day, sched_dep_time),
    sched_arr_time = make_datetime_100(year, month, day, sched_arr_time)
  ) %>% 
  select(origin, dest, ends_with("delay"), ends_with("time"))

flights_dt

## # A tibble: 328,063 x 9
##    origin dest  dep_delay arr_delay dep_time            sched_dep_time     
##    <chr>  <chr>     <dbl>     <dbl> <dttm>              <dttm>             
##  1 EWR    IAH           2        11 2013-01-01 05:17:00 2013-01-01 05:15:00
##  2 LGA    IAH           4        20 2013-01-01 05:33:00 2013-01-01 05:29:00
##  3 JFK    MIA           2        33 2013-01-01 05:42:00 2013-01-01 05:40:00
##  4 JFK    BQN          -1       -18 2013-01-01 05:44:00 2013-01-01 05:45:00
##  5 LGA    ATL          -6       -25 2013-01-01 05:54:00 2013-01-01 06:00:00
##  6 EWR    ORD          -4        12 2013-01-01 05:54:00 2013-01-01 05:58:00
##  7 EWR    FLL          -5        19 2013-01-01 05:55:00 2013-01-01 06:00:00
##  8 LGA    IAD          -3       -14 2013-01-01 05:57:00 2013-01-01 06:00:00
##  9 JFK    MCO          -3        -8 2013-01-01 05:57:00 2013-01-01 06:00:00
## 10 LGA    ORD          -2         8 2013-01-01 05:58:00 2013-01-01 06:00:00
## # ... with 328,053 more rows, and 3 more variables: arr_time <dttm>,
## #   sched_arr_time <dttm>, air_time <dbl>
…
one_pm

## [1] "2016-03-12 13:00:00 EST"

one_pm + days(1)

## [1] "2016-03-13 13:00:00 EDT"

Time travel?

flights_dt %>% 
  filter(arr_time < dep_time) %>%
    select(origin, dest, dep_time, arr_time)

## # A tibble: 10,633 x 4
##    origin dest  dep_time            arr_time           
##    <chr>  <chr> <dttm>              <dttm>             
##  1 EWR    BQN   2013-01-01 19:29:00 2013-01-01 00:03:00
##  2 JFK    DFW   2013-01-01 19:39:00 2013-01-01 00:29:00
##  3 EWR    TPA   2013-01-01 20:58:00 2013-01-01 00:08:00
##  4 EWR    SJU   2013-01-01 21:02:00 2013-01-01 01:46:00
##  5 EWR    SFO   2013-01-01 21:08:00 2013-01-01 00:25:00
##  6 LGA    FLL   2013-01-01 21:20:00 2013-01-01 00:16:00
##  7 EWR    MCO   2013-01-01 21:21:00 2013-01-01 00:06:00
##  8 JFK    LAX   2013-01-01 21:28:00 2013-01-01 00:26:00
##  9 EWR    FLL   2013-01-01 21:34:00 2013-01-01 00:20:00
## 10 EWR    FLL   2013-01-01 21:36:00 2013-01-01 00:25:00
## # ... with 10,623 more rows
…
